Final Report
…
2.3 The Expensive Types of Model

Model 23 is the most expensive vehicle model, as it is the most frequently visited to the dealers.

plot_7 <- eliminated %>%
  group_by(Model, production_date) %>%
  summarise(total_price = sum(price)) %>%
  mutate(age_of_car = as.numeric(format(Sys.Date(), "%Y"))-production_date)%>%
  arrange(desc(total_price))
plot_7

## # A tibble: 121 x 4
## # Groups:   Model [27]
##    Model    production_date total_price age_of_car
##    <chr>              <dbl>       <dbl>      <dbl>
##  1 model_23            2016   29279644.          4
##  2 model_1             2016   23435455.          4
##  3 model_23            2017   20997581.          3
##  4 model_21            2017   20108047.          3
##  5 model_21            2018   19286777.          2
##  6 model_9             2017   13556276.          3
##  7 model_21            2016   10950340.          4
##  8 model_9             2016   10451858.          4
##  9 model_2             2015    9139873.          5
## 10 model_27            2018    8599881.          2
## # ... with 111 more rows
…
