Exploratory Data Analysis
…
2.4 Analyzing Min, Max and Mean of The Vehicle Kms

In this part, The distribution of the vehicle kms was plotted according to the models. After the extreme values were discovered, a different idea of analysis emerged to expel these values.

plot_3<- service_dt %>%
  group_by(Model)%>%
  summarise(min_km=min(vehicle_km), max_km = max(vehicle_km), mean_km = mean(vehicle_km))%>%
  pivot_longer(cols = c(-Model))
print(plot_3)

## # A tibble: 81 x 3
##    Model    name       value
##    <chr>    <chr>      <dbl>
##  1 model_1  min_km        0 
##  2 model_1  max_km  1433502 
##  3 model_1  mean_km  330476.
##  4 model_10 min_km      100 
##  5 model_10 max_km   481610 
##  6 model_10 mean_km  201121.
##  7 model_11 min_km      100 
##  8 model_11 max_km  1109000 
##  9 model_11 mean_km  426548.
## 10 model_12 min_km    30000 
## # ... with 71 more rows
…
2.5 Discovering Outliers

In order to make sure that outliers actually exist the boxplot was created. From the graph which was drawn at below, the outliers could be seen very clearly especially in max graph.

plot_3<- service_dt %>%
  group_by(Model)%>%
  summarise(min_km=min(vehicle_km), max_km = max(vehicle_km), mean_km = mean(vehicle_km))%>%
  pivot_longer(cols = c(-Model))%>%
  print(plot_3)

## # A tibble: 81 x 3
##    Model    name       value
##    <chr>    <chr>      <dbl>
##  1 model_1  min_km        0 
##  2 model_1  max_km  1433502 
##  3 model_1  mean_km  330476.
##  4 model_10 min_km      100 
##  5 model_10 max_km   481610 
##  6 model_10 mean_km  201121.
##  7 model_11 min_km      100 
##  8 model_11 max_km  1109000 
##  9 model_11 mean_km  426548.
## 10 model_12 min_km    30000 
## # ... with 71 more rows
…
eliminated<- subset(service_dt, service_dt$vehicle_km> (Q[1] - 1.5*iqr) & service_dt$vehicle_km < (Q[2]+1.5*iqr))

Thanks to the elimination of the outliers the range of vehicle kms graph was decreased. Therefore, the graph could be analyzed in more detail as if with a magnifying glass.

plot_4<- eliminated %>%
  group_by(Model)%>%
  summarise(min_km=min(vehicle_km), max_km = max(vehicle_km), mean_km = mean(vehicle_km))%>%
  pivot_longer(cols = c(-Model))
print(plot_4)

## # A tibble: 81 x 3
##    Model    name       value
##    <chr>    <chr>      <dbl>
##  1 model_1  min_km        0 
##  2 model_1  max_km  1312210 
##  3 model_1  mean_km  329754.
##  4 model_10 min_km      100 
##  5 model_10 max_km   481610 
##  6 model_10 mean_km  201121.
##  7 model_11 min_km      100 
##  8 model_11 max_km  1109000 
##  9 model_11 mean_km  426548.
## 10 model_12 min_km    30000 
## # ... with 71 more rows
…
Unlike the usage amount graph, when the total part costs are sorted by much less, it is seen that parts come first. And then other and oil followed. The most important reason for this is that the unit cost of other part is very low compared to part.

plot_6<- eliminated%>%
  group_by(process_type, material_type)%>%
  summarise(total_cost = sum(price))%>%
  arrange(desc(total_cost))
plot_6

## # A tibble: 36 x 3
## # Groups:   process_type [11]
##    process_type material_type total_cost
##    <chr>        <chr>              <dbl>
##  1 Ariza        Parca         144742205.
##  2 Ariza        Diger          80304717.
##  3 Garanti      Parca          14356548.
##  4 Kontrol      Parca           7035741.
##  5 Hasar        Diger           6040451.
##  6 P.Bakim      Parca           5957358.
##  7 Hasar        Parca           5788021.
##  8 Dahili       Parca           4251055.
##  9 Kampanya     Parca           3593142.
## 10 Kontrol      Diger           2451356.
## # ... with 26 more rows
…
2.9 The Total Price According to Types of Model

In this section, the dataset is grouped according to the model production date variables, and it is aimed to find the model with the highest service expenditure. Model 23 was seen to be the most costly model.

plot_7 <- eliminated %>%
  group_by(Model, production_date) %>%
  summarise(total_price = sum(price)) %>%
  mutate(age_of_car = as.numeric(format(Sys.Date(), "%Y"))-production_date)%>%
  arrange(desc(total_price))
plot_7

## # A tibble: 122 x 4
## # Groups:   Model [27]
##    Model    production_date total_price age_of_car
##    <chr>              <dbl>       <dbl>      <dbl>
##  1 model_23            2016   30377790.          4
##  2 model_1             2016   23435455.          4
##  3 model_23            2017   22175864.          3
##  4 model_21            2017   21019086.          3
##  5 model_21            2018   20072235.          2
##  6 model_9             2017   14764589.          3
##  7 model_9             2016   11963495.          4
##  8 model_21            2016   11251275.          4
##  9 model_27            2018    9431047.          2
## 10 model_2             2015    9139873.          5
## # ... with 112 more rows
…
